-----BEGIN PGP PUBLIC KEY BLOCK-----

mDMEYQEixxYJKwYBBAHaRw8BAQdAwIIFb+aGIkln/WRPvajYOZNevvwB5g7g54jB
PaaLBia0LWJhcnQuYnV0bGVyQHByb3Rvbi5jaCA8YmFydC5idXRsZXJAcHJvdG9u
LmNoPoiPBBAWCgAgBQJhASLHBgsJBwgDAgQVCAoCBBYCAQACGQECGwMCHgEAIQkQ
dNctR3v2bjcWIQRon0j9YbcqEkZ8JVp01y1He/ZuN47yAQDksBExpHmxFz28EN2j
yMhRfRvyiomAke2rkp7Km3bx6AD/RsJddlpezD9eYZwu/KvbN8YYTGaGk8fN7nKD
TATkhQC4OARhASLHEgorBgEEAZdVAQUBAQdAkV938VwR7E7bCZYTqJqRldHy4XU6
o0vYb70ThV3ztFYDAQgHiHgEGBYIAAkFAmEBIscCGwwAIQkQdNctR3v2bjcWIQRo
n0j9YbcqEkZ8JVp01y1He/ZuN4ukAQCF5T1rCdyPN+5t/WWeeYkC9DoOMs0o1LZF
lmpKHa6cyAEAsPvfqNA3ir1or94hJ374ZSqIsk+HfOrThObPRGqwGgM=
=F0Hs
-----END PGP PUBLIC KEY BLOCK-----
