-----BEGIN PGP PUBLIC KEY BLOCK-----

mDMEXmpegxYJKwYBBAHaRw8BAQdAIVGIUut1HQDyBs3xHv09l3VaBu8IuepKXg4T
bRQKsia0LWxhcmFickBwcm90b25tYWlsLmNvbSA8bGFyYWJyQHByb3Rvbm1haWwu
Y29tPoh4BBAWCgAgBQJeal6DBgsJBwgDAgQVCAoCBBYCAQACGQECGwMCHgEACgkQ
KkvsQHKRhd0GbgD+JUgXQI9nRyaAvEFC8XfCnt70+P0+nWqOtb15MV2KTY4A+wWn
ailggSV9VwSrJa38o/8EhWp08rVyz5q6sazdgoQGuDgEXmpegxIKKwYBBAGXVQEF
AQEHQAw+/f3wHA71/yxb7UPgdx01Wg2HIomchkgs+HbbOOA/AwEIB4hhBBgWCAAJ
BQJeal6DAhsMAAoJECpL7EBykYXdzWQBAMOiCqjCC/haMILqpLHu300135aKFKCl
YoANJ9rtqN65AP9LHLhWZfoBhKUb+24sJ8ynzuW7s12dI4kfRapgHm86AA==
=N/ca
-----END PGP PUBLIC KEY BLOCK-----
