-----BEGIN PGP PUBLIC KEY BLOCK-----

mDMEY/3/+xYJKwYBBAHaRw8BAQdAp3rtWtby9vRlkUSod1LHiiSkNlddTr+bw5E/
H2XpkEe0QW1hcmluLnRoaWVyY2VsaW5AcHJvdG9ubWFpbC5jb20gPG1hcmluLnRo
aWVyY2VsaW5AcHJvdG9ubWFpbC5jb20+iIwEEBYKAD4FAmP9//sECwkHCAkQ0JyA
hNcaq/4DFQgKBBYAAgECGQECGwMCHgEWIQTgJvkw+e6etR17aNHQnICE1xqr/gAA
xAoA+wfXlJGQs2drQ8fH7h/0hd9+I/gUDvv8uyX3ON3KwxiAAP4vYJg+RADh3XIE
5UFTpsd2PhbpsuxsI4Y4xcE8Cj1KDrg4BGP9//sSCisGAQQBl1UBBQEBB0A3FUpa
SbvycTkUQAWUVykOFxkp6jP0pBleBXcFa0HnLgMBCAeIeAQYFggAKgUCY/3/+wkQ
0JyAhNcaq/4CGwwWIQTgJvkw+e6etR17aNHQnICE1xqr/gAADtwBAIvaxq717Swv
5oq6Xry/88A/jhARr/lleNe7aBJF3TwAAP9iRNt9H+NRySwsuJ+E35lqzP3aoeke
jklqof18h8RtBA==
=II/O
-----END PGP PUBLIC KEY BLOCK-----
