-----BEGIN PGP PUBLIC KEY BLOCK-----

mFIEAAAAABMIKoZIzj0DAQcCAwTLDHkxxcSWI+9ihHfp3CTcj71SMNSmQ/tvyacP
Ilh0wGf2vZIdh0HXGFFsQYHmj0mxBuh2g64wA4AnSRnNDcrxtBA8ZXZuQGdvb2ds
ZS5jb20+iJcEEBMIAD//AAAABYJjO/fK/wAAAAKLCf8AAAAJkOBY30/r7yis/wAA
AAWVCAkKC/8AAAADlgEC/wAAAAKbA/8AAAACngEACgkQ4FjfT+vvKKzSqgEAkYNy
0iGslnYPKWOQQPyK70BeyLp3/L/TQ2QAH4LxProBAMpE05L6o4OpxsEno6BI8EfS
+RwuuUv0KANIf2ZZS5wVuFYEAAAAABIIKoZIzj0DAQcCAwQwSNqoGODZfNeesL43
VllA6lABunFku7EuFLdE6xGy9YPyNZA+FAYfu6hZ+2We/u0odhUGV3c1rP0c/ZhH
pq2TAwEIB4h3BBgTCAAf/wAAAAWCYzv3yv8AAAAJkOBY30/r7yis/wAAAAKbDAAK
CRDgWN9P6+8orGQcAP9AeEHqWZXLfOHizf9mEffhL5kx57EehuyQ0EFUz+IUDwD9
Gf/CxpsoH6xxoh7ytrlhgfClZ7dkDJL0r6HZnqH3Owo=
=gkqI
-----END PGP PUBLIC KEY BLOCK-----
